Test/20200430/COMPRESSION_TYPE_SCALE_1/Measurement.csv

Record Length,2500,Points,-900.000035763E-3,-2.6399999,,Record Length,2500,Points,-900.000035763E-3,-202.00000703E-3,,Record Length,2500,Points,-900.000035763E-3,-2.5999999,,Record Length,2500,Points,-900.000035763E-3,-2.6399999,
Sample Interval,9.999999776E-3,s,-890.000045300E-3,-2.6399999,,Sample Interval,9.999999776E-3,s,-890.000045300E-3,-200.00000298E-3,,Sample Interval,9.999999776E-3,s,-890.000045300E-3,-2.6199999,,Sample Interval,9.999999776E-3,s,-890.000045300E-3,-2.6199999,
Trigger Point,90.000005588,Samples,-880.000054836E-3,-2.6399999,,Trigger Point,90.000005588,Samples,-880.000054836E-3,-204.00001109E-3,,Trigger Point,90.000005588,Samples,-880.000054836E-3,-2.6199999,,Trigger Point,90.000005588,Samples,-880.000054836E-3,-2.6199999,
,,,-870.000064373E-3,-2.6199999,,,,,-870.000064373E-3,-188.00000846E-3,,,,,-870.000064373E-3,-2.6199999,,,,,-870.000064373E-3,-2.6199999,
,,,-860.000014305E-3,-2.6399999,,,,,-860.000014305E-3,-188.00000846E-3,,,,,-860.000014305E-3,-2.6199999,,,,,-860.000014305E-3,-2.6399999,
,,,-850.000023842E-3,-2.6399999,,,,,-850.000023842E-3,-198.00001383E-3,,,,,-850.000023842E-3,-2.6199999,,,,,-850.000023842E-3,-2.6399999,
Source,CH1,,-840.000033379E-3,-2.6599998,,Source,CH2,,-840.000033379E-3,-190.00001252E-3,,Source,CH3,,-840.000033379E-3,-2.6199999,,Source,CH4,,-840.000033379E-3,-2.6399999,
Vertical Units,Volts,,-830.000042915E-3,-2.6399999,,Vertical Units,Volts,,-830.000042915E-3,-194.00000572E-3,,Vertical Units,Volts,,-830.000042915E-3,-2.6199999,,Vertical Units,Volts,,-830.000042915E-3,-2.6399999,
Vertical Scale,499.999988824E-3,,-820.000052452E-3,-2.6399999,,Vertical Scale,50.00000237E-3,,-820.000052452E-3,-196.00000978E-3,,Vertical Scale,499.999988824E-3,,-820.000052452E-3,-2.6199999,,Vertical Scale,499.999988824E-3,,-820.000052452E-3,-2.6399999,
Vertical Offset,0,,-810.000061989E-3,-2.6399999,,Vertical Offset,0,,-810.000061989E-3,-198.00001383E-3,,Vertical Offset,0,,-810.000061989E-3,-2.6199999,,Vertical Offset,0,,-810.000061989E-3,-2.6399999,
Horizontal Units,s,,-800.000011921E-3,-2.6399999,,Horizontal Units,s,,-800.000011921E-3,-188.00000846E-3,,Horizontal Units,s,,-800.000011921E-3,-2.6399999,,Horizontal Units,s,,-800.000011921E-3,-2.6399999,
Horizontal Scale,2.4999999,,-790.000021458E-3,-2.6399999,,Horizontal Scale,2.4999999,,-790.000021458E-3,-194.00000572E-3,,Horizontal Scale,2.4999999,,-790.000021458E-3,-2.6199999,,Horizontal Scale,2.4999999,,-790.000021458E-3,-2.6399999,
Pt Fmt,Y,,-780.000030994E-3,-2.6199999,,Pt Fmt,Y,,-780.000030994E-3,-194.00000572E-3,,Pt Fmt,Y,,-780.000030994E-3,-2.6399999,,Pt Fmt,Y,,-780.000030994E-3,-2.6399999,
Yzero,3.04000000,,-770.000040531E-3,-2.6399999,,Yzero,3.08000000,,-770.000040531E-3,-204.00001109E-3,,Yzero,3.32000000,,-770.000040531E-3,-2.6199999,,Yzero,3.36000000,,-770.000040531E-3,-2.6399999,
Probe Atten,10.0000000,,-760.000050068E-3,-2.6399999,,Probe Atten,10.0000000,,-760.000050068E-3,-200.00000298E-3,,Probe Atten,10.0000000,,-760.000050068E-3,-2.6199999,,Probe Atten,10.0000000,,-760.000050068E-3,-2.6399999,
,,,-750.000059605E-3,-2.6399999,,,,,-750.000059605E-3,-190.00001252E-3,,,,,-750.000059605E-3,-2.6199999,,,,,-750.000059605E-3,-2.6399999,
Note,TBS 1104 - 10:35:53 PM   4/30/2020,,-740.000009537E-3,-2.6399999,,Note,TBS 1104 - 10:35:53 PM   4/30/2020,,-740.000009537E-3,-192.00000167E-3,,Note,TBS 1104 - 10:35:53 PM   4/30/2020,,-740.000009537E-3,-2.5999999,,Note,TBS 1104 - 10:35:53 PM   4/30/2020,,-740.000009537E-3,-2.6399999,
,,,-730.000019073E-3,-2.6399999,,,,,-730.000019073E-3,-186.00000441E-3,,,,,-730.000019073E-3,-2.6199999,,,,,-730.000019073E-3,-2.6399999,
,,,-720.000028610E-3,-2.6399999,,,,,-720.000028610E-3,-188.00000846E-3,,,,,-720.000028610E-3,-2.6199999,,,,,-720.000028610E-3,-2.6199999,
,,,-710.000038147E-3,-2.6399999,,,,,-710.000038147E-3,-188.00000846E-3,,,,,-710.000038147E-3,-2.6199999,,,,,-710.000038147E-3,-2.6199999,
,,,-700.000047684E-3,-2.6399999,,,,,-700.000047684E-3,-198.00001383E-3,,,,,-700.000047684E-3,-2.6199999,,,,,-700.000047684E-3,-2.6399999,
,,,-690.000057220E-3,-2.6399999,,,,,-690.000057220E-3,-186.00000441E-3,,,,,-690.000057220E-3,-2.6199999,,,,,-690.000057220E-3,-2.6199999,
,,,-680.000066757E-3,-2.6399999,,,,,-680.000066757E-3,-204.00001109E-3,,,,,-680.000066757E-3,-2.5999999,,,,,-680.000066757E-3,-2.6199999,
,,,-670.000016689E-3,-2.6399999,,,,,-670.000016689E-3,-198.00001383E-3,,,,,-670.000016689E-3,-2.6399999,,,,,-670.000016689E-3,-2.6399999,
,,,-660.000026226E-3,-2.6399999,,,,,-660.000026226E-3,-194.00000572E-3,,,,,-660.000026226E-3,-2.6199999,,,,,-660.000026226E-3,-2.6399999,
,,,-650.000035763E-3,-2.6399999,,,,,-650.000035763E-3,-196.00000978E-3,,,,,-650.000035763E-3,-2.6199999,,,,,-650.000035763E-3,-2.6399999,
,,,-640.000045300E-3,-2.6399999,,,,,-640.000045300E-3,-196.00000978E-3,,,,,-640.000045300E-3,-2.6199999,,,,,-640.000045300E-3,-2.6199999,
,,,-630.000054836E-3,-2.6399999,,,,,-630.000054836E-3,-198.00001383E-3,,,,,-630.000054836E-3,-2.5999999,,,,,-630.000054836E-3,-2.6199999,
,,,-620.000064373E-3,-2.6599998,,,,,-620.000064373E-3,-180.00000715E-3,,,,,-620.000064373E-3,-2.6199999,,,,,-620.000064373E-3,-2.6399999,
,,,-610.000014305E-3,-2.6399999,,,,,-610.000014305E-3,-200.00000298E-3,,,,,-610.000014305E-3,-2.6199999,,,,,-610.000014305E-3,-2.6399999,
,,,-600.000023842E-3,-2.6399999,,,,,-600.000023842E-3,-186.00000441E-3,,,,,-600.000023842E-3,-2.6199999,,,,,-600.000023842E-3,-2.6199999,
,,,-590.000033379E-3,-2.6199999,,,,,-590.000033379E-3,-198.00001383E-3,,,,,-590.000033379E-3,-2.6199999,,,,,-590.000033379E-3,-2.6399999,
,,,-580.000042915E-3,-2.6399999,,,,,-580.000042915E-3,-198.00001383E-3,,,,,-580.000042915E-3,-2.6399999,,,,,-580.000042915E-3,-2.6399999,
,,,-570.000052452E-3,-2.6399999,,,,,-570.000052452E-3,-192.00000167E-3,,,,,-570.000052452E-3,-2.6199999,,,,,-570.000052452E-3,-2.6399999,
,,,-560.000061989E-3,-2.6199999,,,,,-560.000061989E-3,-200.00000298E-3,,,,,-560.000061989E-3,-2.6199999,,,,,-560.000061989E-3,-2.6199999,
,,,-550.000071526E-3,-2.6399999,,,,,-550.000071526E-3,-188.00000846E-3,,,,,-550.000071526E-3,-2.6399999,,,,,-550.000071526E-3,-2.6199999,
,,,-540.000021458E-3,-2.6399999,,,,,-540.000021458E-3,-200.00000298E-3,,,,,-540.000021458E-3,-2.6199999,,,,,-540.000021458E-3,-2.6399999,
,,,-530.000030994E-3,-2.6399999,,,,,-530.000030994E-3,-194.00000572E-3,,,,,-530.000030994E-3,-2.6199999,,,,,-530.000030994E-3,-2.6399999,
,,,-520.000040531E-3,-2.6399999,,,,,-520.000040531E-3,-190.00001252E-3,,,,,-520.000040531E-3,-2.6199999,,,,,-520.000040531E-3,-2.6399999,
,,,-510.000050068E-3,-2.6399999,,,,,-510.000050068E-3,-194.00000572E-3,,,,,-510.000050068E-3,-2.6199999,,,,,-510.000050068E-3,-2.6199999,
,,,-500.000059605E-3,-2.6399999,,,,,-500.000059605E-3,-198.00001383E-3,,,,,-500.000059605E-3,-2.5999999,,,,,-500.000059605E-3,-2.6399999,
,,,-490.000039339E-3,-2.6399999,,,,,-490.000039339E-3,-198.00001383E-3,,,,,-490.000039339E-3,-2.6199999,,,,,-490.000039339E-3,-2.6399999,
,,,-480.000048876E-3,-2.6399999,,,,,-480.000048876E-3,-196.00000978E-3,,,,,-480.000048876E-3,-2.6199999,,,,,-480.000048876E-3,-2.6399999,
,,,-470.000058413E-3,-2.6399999,,,,,-470.000058413E-3,-194.00000572E-3,,,,,-470.000058413E-3,-2.6199999,,,,,-470.000058413E-3,-2.6199999,
,,,-460.000038147E-3,-2.6399999,,,,,-460.000038147E-3,-192.00000167E-3,,,,,-460.000038147E-3,-2.6199999,,,,,-460.000038147E-3,-2.6399999,
,,,-450.000047684E-3,-2.6399999,,,,,-450.000047684E-3,-196.00000978E-3,,,,,-450.000047684E-3,-2.6199999,,,,,-450.000047684E-3,-2.6399999,
,,,-440.000057220E-3,-2.6399999,,,,,-440.000057220E-3,-202.00000703E-3,,,,,-440.000057220E-3,-2.6199999,,,,,-440.000057220E-3,-2.6199999,
,,,-430.000036955E-3,-2.6399999,,,,,-430.000036955E-3,-192.00000167E-3,,,,,-430.000036955E-3,-2.6199999,,,,,-430.000036955E-3,-2.6199999,
,,,-420.000046492E-3,-2.6399999,,,,,-420.000046492E-3,-198.00001383E-3,,,,,-420.000046492E-3,-2.6199999,,,,,-420.000046492E-3,-2.6199999,
,,,-410.000056028E-3,-2.6199999,,,,,-410.000056028E-3,-192.00000167E-3,,,,,-410.000056028E-3,-2.6399999,,,,,-410.000056028E-3,-2.6399999,
,,,-400.00003576E-3,-2.6399999,,,,,-400.00003576E-3,-196.00000978E-3,,,,,-400.00003576E-3,-2.6199999,,,,,-400.00003576E-3,-2.6199999,
,,,-390.00004530E-3,-2.6199999,,,,,-390.00004530E-3,-196.00000978E-3,,,,,-390.00004530E-3,-2.6399999,,,,,-390.00004530E-3,-2.6399999,
,,,-380.00005484E-3,-2.6399999,,,,,-380.00005484E-3,-200.00000298E-3,,,,,-380.00005484E-3,-2.6199999,,,,,-380.00005484E-3,-2.6199999,
,,,-370.00003457E-3,-2.6399999,,,,,-370.00003457E-3,-192.00000167E-3,,,,,-370.00003457E-3,-2.6199999,,,,,-370.00003457E-3,-2.6399999,
,,,-360.00004411E-3,-2.6399999,,,,,-360.00004411E-3,-196.00000978E-3,,,,,-360.00004411E-3,-2.6199999,,,,,-360.00004411E-3,-2.6399999,
,,,-350.00005364E-3,-2.6399999,,,,,-350.00005364E-3,-184.00001526E-3,,,,,-350.00005364E-3,-2.6199999,,,,,-350.00005364E-3,-2.6199999,
,,,-340.00003338E-3,-2.6399999,,,,,-340.00003338E-3,-198.00001383E-3,,,,,-340.00003338E-3,-2.6199999,,,,,-340.00003338E-3,-2.6199999,
,,,-330.00004292E-3,-2.6199999,,,,,-330.00004292E-3,-186.00000441E-3,,,,,-330.00004292E-3,-2.6199999,,,,,-330.00004292E-3,-2.6399999,
,,,-320.00005245E-3,-2.6199999,,,,,-320.00005245E-3,-198.00001383E-3,,,,,-320.00005245E-3,-2.6399999,,,,,-320.00005245E-3,-2.6399999,
,,,-310.00006199E-3,-2.6399999,,,,,-310.00006199E-3,-196.00000978E-3,,,,,-310.00006199E-3,-2.6199999,,,,,-310.00006199E-3,-2.6199999,
,,,-300.00004172E-3,-2.6399999,,,,,-300.00004172E-3,-198.00001383E-3,,,,,-300.00004172E-3,-2.6199999,,,,,-300.00004172E-3,-2.6399999,
,,,-290.00005126E-3,-2.6399999,,,,,-290.00005126E-3,-196.00000978E-3,,,,,-290.00005126E-3,-2.6199999,,,,,-290.00005126E-3,-2.6199999,
,,,-280.00006080E-3,-2.6399999,,,,,-280.00006080E-3,-196.00000978E-3,,,,,-280.00006080E-3,-2.5999999,,,,,-280.00006080E-3,-2.6199999,
,,,-270.00004053E-3,-2.6399999,,,,,-270.00004053E-3,-198.00001383E-3,,,,,-270.00004053E-3,-2.6199999,,,,,-270.00004053E-3,-2.6399999,
,,,-260.00005007E-3,-2.6399999,,,,,-260.00005007E-3,-188.00000846E-3,,,,,-260.00005007E-3,-2.6199999,,,,,-260.00005007E-3,-2.6399999,
,,,-250.00005960E-3,-2.6399999,,,,,-250.00005960E-3,-198.00001383E-3,,,,,-250.00005960E-3,-2.6199999,,,,,-250.00005960E-3,-2.6399999,
,,,-240.00005424E-3,-2.6399999,,,,,-240.00005424E-3,-192.00000167E-3,,,,,-240.00005424E-3,-2.6199999,,,,,-240.00005424E-3,-2.6399999,
,,,-230.00004888E-3,-2.6399999,,,,,-230.00004888E-3,-188.00000846E-3,,,,,-230.00004888E-3,-2.6199999,,,,,-230.00004888E-3,-2.6199999,
,,,-220.00005841E-3,-2.6399999,,,,,-220.00005841E-3,-196.00000978E-3,,,,,-220.00005841E-3,-2.5999999,,,,,-220.00005841E-3,-2.6199999,
,,,-210.00005305E-3,-2.6399999,,,,,-210.00005305E-3,-188.00000846E-3,,,,,-210.00005305E-3,-2.6199999,,,,,-210.00005305E-3,-2.6399999,
,,,-200.00004768E-3,-2.6399999,,,,,-200.00004768E-3,-194.00000572E-3,,,,,-200.00004768E-3,-2.6199999,,,,,-200.00004768E-3,-2.6199999,
,,,-190.00005722E-3,-2.6399999,,,,,-190.00005722E-3,-194.00000572E-3,,,,,-190.00005722E-3,-2.5999999,,,,,-190.00005722E-3,-2.6399999,
,,,-180.00005186E-3,-2.6399999,,,,,-180.00005186E-3,-192.00000167E-3,,,,,-180.00005186E-3,-2.6199999,,,,,-180.00005186E-3,-2.6199999,
,,,-170.00004649E-3,-2.6399999,,,,,-170.00004649E-3,-200.00000298E-3,,,,,-170.00004649E-3,-2.6199999,,,,,-170.00004649E-3,-2.6199999,
,,,-160.00005603E-3,-2.6399999,,,,,-160.00005603E-3,-196.00000978E-3,,,,,-160.00005603E-3,-2.6199999,,,,,-160.00005603E-3,-2.6199999,
,,,-150.00005066E-3,-2.6399999,,,,,-150.00005066E-3,-196.00000978E-3,,,,,-150.00005066E-3,-2.6399999,,,,,-150.00005066E-3,-2.6399999,
,,,-140.0000453E-3,-2.6399999,,,,,-140.0000453E-3,-194.00000572E-3,,,,,-140.0000453E-3,-2.6199999,,,,,-140.0000453E-3,-2.6199999,
,,,-130.0000548E-3,-2.6399999,,,,,-130.0000548E-3,-196.00000978E-3,,,,,-130.0000548E-3,-2.6199999,,,,,-130.0000548E-3,-2.6199999,
,,,-120.0000495E-3,-2.6399999,,,,,-120.0000495E-3,-198.00001383E-3,,,,,-120.0000495E-3,-2.6399999,,,,,-120.0000495E-3,-2.6399999,
,,,-110.0000516E-3,-2.6199999,,,,,-110.0000516E-3,-194.00000572E-3,,,,,-110.0000516E-3,-2.6199999,,,,,-110.0000516E-3,-2.6399999,
,,,-100.0000536E-3,-2.6399999,,,,,-100.0000536E-3,-196.00000978E-3,,,,,-100.0000536E-3,-2.6199999,,,,,-100.0000536E-3,-2.6399999,
,,,-90.000055730E-3,-2.6599998,,,,,-90.000055730E-3,-192.00000167E-3,,,,,-90.000055730E-3,-2.6199999,,,,,-90.000055730E-3,-2.5999999,
,,,-80.000057817E-3,-2.6399999,,,,,-80.000057817E-3,-194.00000572E-3,,,,,-80.000057817E-3,-2.6199999,,,,,-80.000057817E-3,-2.6399999,
,,,-70.000052452E-3,-2.6399999,,,,,-70.000052452E-3,-194.00000572E-3,,,,,-70.000052452E-3,-2.6199999,,,,,-70.000052452E-3,-2.6399999,
,,,-60.000054538E-3,-2.6399999,,,,,-60.000054538E-3,-196.00000978E-3,,,,,-60.000054538E-3,-2.6199999,,,,,-60.000054538E-3,-2.6399999,
,,,-50.00005662E-3,-2.6399999,,,,,-50.00005662E-3,-194.00000572E-3,,,,,-50.00005662E-3,-2.6199999,,,,,-50.00005662E-3,-2.6199999,
,,,-40.00005499E-3,-2.6399999,,,,,-40.00005499E-3,-196.00000978E-3,,,,,-40.00005499E-3,-2.6199999,,,,,-40.00005499E-3,-2.6399999,
,,,-30.00005521E-3,-2.6399999,,,,,-30.00005521E-3,-204.00001109E-3,,,,,-30.00005521E-3,-2.6199999,,,,,-30.00005521E-3,-2.6199999,
,,,-20.0000554E-3,-2.6399999,,,,,-20.0000554E-3,-196.00000978E-3,,,,,-20.0000554E-3,-2.6399999,,,,,-20.0000554E-3,-2.6399999,
,,,-10.0000557E-3,-2.6399999,,,,,-10.0000557E-3,-188.00000846E-3,,,,,-10.0000557E-3,-2.6199999,,,,,-10.0000557E-3,-2.6399999,
,,,-55.879354477E-9,-2.6599998,,,,,-55.879354477E-9,-212.00001240E-3,,,,,-55.879354477E-9,-199.99998808E-3,,,,,-55.879354477E-9,-2.6199999,
,,,9.999943897E-3,-2.6199999,,,,,9.999943897E-3,-216.00000560E-3,,,,,9.999943897E-3,-199.99998808E-3,,,,,9.999943897E-3,-2.6399999,
,,,19.9999437E-3,-2.6399999,,,,,19.9999437E-3,-220.00001371E-3,,,,,19.9999437E-3,-219.99999881E-3,,,,,19.9999437E-3,-2.6199999,
,,,29.99994345E-3,-2.6199999,,,,,29.99994345E-3,-212.00001240E-3,,,,,29.99994345E-3,-219.99999881E-3,,,,,29.99994345E-3,-2.6399999,
,,,39.99994323E-3,-2.6399999,,,,,39.99994323E-3,-226.00001097E-3,,,,,39.99994323E-3,-199.99998808E-3,,,,,39.99994323E-3,-2.5999999,
,,,49.99994487E-3,-2.6399999,,,,,49.99994487E-3,-206.00001514E-3,,,,,49.99994487E-3,-219.99999881E-3,,,,,49.99994487E-3,-2.6199999,
,,,59.999942780E-3,-2.6399999,,,,,59.999942780E-3,-212.00001240E-3,,,,,59.999942780E-3,-219.99999881E-3,,,,,59.999942780E-3,-2.6399999,
,,,69.999940693E-3,-2.6199999,,,,,69.999940693E-3,-196.00000978E-3,,,,,69.999940693E-3,-199.99998808E-3,,,,,69.999940693E-3,-199.99998808E-3,
,,,79.999938607E-3,-2.6399999,,,,,79.999938607E-3,-208.00000429E-3,,,,,79.999938607E-3,-199.99998808E-3,,,,,79.999938607E-3,-199.99998808E-3,
,,,89.999943972E-3,-2.6399999,,,,,89.999943972E-3,-196.00000978E-3,,,,,89.999943972E-3,-219.99999881E-3,,,,,89.999943972E-3,-199.99998808E-3,
,,,99.999941885E-3,-2.6399999,,,,,99.999941885E-3,-202.00000703E-3,,,,,99.999941885E-3,-219.99999881E-3,,,,,99.999941885E-3,-239.99999464E-3,
,,,109.9999398E-3,-2.6199999,,,,,109.9999398E-3,-204.00001109E-3,,,,,109.9999398E-3,-219.99999881E-3,,,,,109.9999398E-3,-199.99998808E-3,
,,,119.9999452E-3,-2.6399999,,,,,119.9999452E-3,-202.00000703E-3,,,,,119.9999452E-3,-199.99998808E-3,,,,,119.9999452E-3,-219.99999881E-3,
,,,129.9999356E-3,-2.6399999,,,,,129.9999356E-3,-200.00000298E-3,,,,,129.9999356E-3,-199.99998808E-3,,,,,129.9999356E-3,-199.99998808E-3,
,,,139.9999410E-3,-2.6399999,,,,,139.9999410E-3,-212.00001240E-3,,,,,139.9999410E-3,-199.99998808E-3,,,,,139.9999410E-3,-199.99998808E-3,
,,,149.99994636E-3,-2.6199999,,,,,149.99994636E-3,-212.00001240E-3,,,,,149.99994636E-3,-199.99998808E-3,,,,,149.99994636E-3,-199.99998808E-3,
,,,159.99993682E-3,-2.6399999,,,,,159.99993682E-3,-204.00001109E-3,,,,,159.99993682E-3,-219.99999881E-3,,,,,159.99993682E-3,-199.99998808E-3,
,,,169.99994218E-3,-2.6399999,,,,,169.99994218E-3,-204.00001109E-3,,,,,169.99994218E-3,-219.99999881E-3,,,,,169.99994218E-3,-199.99998808E-3,
,,,179.99994755E-3,-2.6399999,,,,,179.99994755E-3,-204.00001109E-3,,,,,179.99994755E-3,-219.99999881E-3,,,,,179.99994755E-3,-199.99998808E-3,
,,,189.99993801E-3,-2.6399999,,,,,189.99993801E-3,-196.00000978E-3,,,,,189.99993801E-3,-219.99999881E-3,,,,,189.99993801E-3,-199.99998808E-3,
,,,199.99994338E-3,-2.6399999,,,,,199.99994338E-3,-206.00001514E-3,,,,,199.99994338E-3,-199.99998808E-3,,,,,199.99994338E-3,-199.99998808E-3,
,,,209.99993384E-3,-2.6399999,,,,,209.99993384E-3,-204.00001109E-3,,,,,209.99993384E-3,-219.99999881E-3,,,,,209.99993384E-3,-219.99999881E-3,
,,,219.99993920E-3,-2.6399999,,,,,219.99993920E-3,-204.00001109E-3,,,,,219.99993920E-3,-199.99998808E-3,,,,,219.99993920E-3,-219.99999881E-3,
,,,229.99994457E-3,-2.6399999,,,,,229.99994457E-3,-200.00000298E-3,,,,,229.99994457E-3,-219.99999881E-3,,,,,229.99994457E-3,-199.99998808E-3,
,,,239.99993503E-3,-2.6599998,,,,,239.99993503E-3,-200.00000298E-3,,,,,239.99993503E-3,-199.99998808E-3,,,,,239.99993503E-3,-199.99998808E-3,
,,,249.99994040E-3,-2.6399999,,,,,249.99994040E-3,-214.00001645E-3,,,,,249.99994040E-3,-199.99998808E-3,,,,,249.99994040E-3,-199.99998808E-3,
,,,259.99993086E-3,-2.6399999,,,,,259.99993086E-3,-206.00001514E-3,,,,,259.99993086E-3,-199.99998808E-3,,,,,259.99993086E-3,-219.99999881E-3,
,,,269.99995112E-3,-2.6399999,,,,,269.99995112E-3,-204.00001109E-3,,,,,269.99995112E-3,-219.99999881E-3,,,,,269.99995112E-3,-219.99999881E-3,
,,,279.99994159E-3,-2.6199999,,,,,279.99994159E-3,-186.00000441E-3,,,,,279.99994159E-3,-219.99999881E-3,,,,,279.99994159E-3,-219.99999881E-3,
,,,289.99993205E-3,-2.6399999,,,,,289.99993205E-3,-196.00000978E-3,,,,,289.99993205E-3,-219.99999881E-3,,,,,289.99993205E-3,-219.99999881E-3,
,,,299.99995232E-3,-2.6399999,,,,,299.99995232E-3,-206.00001514E-3,,,,,299.99995232E-3,-219.99999881E-3,,,,,299.99995232E-3,-199.99998808E-3,
,,,309.99994278E-3,-2.6399999,,,,,309.99994278E-3,-208.00000429E-3,,,,,309.99994278E-3,-219.99999881E-3,,,,,309.99994278E-3,-2.6399999,
,,,319.99993324E-3,-2.6399999,,,,,319.99993324E-3,-192.00000167E-3,,,,,319.99993324E-3,-199.99998808E-3,,,,,319.99993324E-3,-2.6199999,
,,,329.99992371E-3,-2.6199999,,,,,329.99992371E-3,-212.00001240E-3,,,,,329.99992371E-3,-199.99998808E-3,,,,,329.99992371E-3,-2.6199999,
,,,339.99994397E-3,-2.6399999,,,,,339.99994397E-3,-200.00000298E-3,,,,,339.99994397E-3,-219.99999881E-3,,,,,339.99994397E-3,-2.6199999,
,,,349.99993443E-3,-2.6399999,,,,,349.99993443E-3,-196.00000978E-3,,,,,349.99993443E-3,-219.99999881E-3,,,,,349.99993443E-3,-2.6399999,
,,,359.99992490E-3,-2.6199999,,,,,359.99992490E-3,-198.00001383E-3,,,,,359.99992490E-3,-219.99999881E-3,,,,,359.99992490E-3,-2.6199999,
,,,369.99994516E-3,-2.6399999,,,,,369.99994516E-3,-204.00001109E-3,,,,,369.99994516E-3,-199.99998808E-3,,,,,369.99994516E-3,-2.6399999,
,,,379.99993563E-3,-2.6199999,,,,,379.99993563E-3,-208.00000429E-3,,,,,379.99993563E-3,-219.99999881E-3,,,,,379.99993563E-3,-2.6199999,
,,,389.99992609E-3,-2.6399999,,,,,389.99992609E-3,-206.00001514E-3,,,,,389.99992609E-3,-179.99999225E-3,,,,,389.99992609E-3,-2.6199999,
,,,399.99994636E-3,-2.6399999,,,,,399.99994636E-3,-202.00000703E-3,,,,,399.99994636E-3,-199.99998808E-3,,,,,399.99994636E-3,-2.6199999,
,,,409.999936819E-3,-2.6399999,,,,,409.999936819E-3,-208.00000429E-3,,,,,409.999936819E-3,-199.99998808E-3,,,,,409.999936819E-3,-2.6199999,
,,,419.999927282E-3,-2.6399999,,,,,419.999927282E-3,-210.00000834E-3,,,,,419.999927282E-3,-199.99998808E-3,,,,,419.999927282E-3,-2.5999999,
,,,429.999947548E-3,-2.6199999,,,,,429.999947548E-3,-212.00001240E-3,,,,,429.999947548E-3,-199.99998808E-3,,,,,429.999947548E-3,-2.6199999,
,,,439.999938011E-3,-2.6199999,,,,,439.999938011E-3,-204.00001109E-3,,,,,439.999938011E-3,-219.99999881E-3,,,,,439.999938011E-3,-2.6199999,
,,,449.999928474E-3,-2.6199999,,,,,449.999928474E-3,-204.00001109E-3,,,,,449.999928474E-3,-219.99999881E-3,,,,,449.999928474E-3,-2.6399999,
,,,459.999918938E-3,-2.6399999,,,,,459.999918938E-3,-200.00000298E-3,,,,,459.999918938E-3,-179.99999225E-3,,,,,459.999918938E-3,-2.6399999,
